# Type	nodeCrdX	nodeCrdY	nodeCrdZ
MechDoF	0.000000000000000e+00	5.000000000000000e-02	5.000000000000000e-02   6
MechDoF	5.000000000000000e-01	5.000000000000000e-02	5.000000000000000e-02   6
MechDoF	0	0	0   6
TrsDoF	0.000000000000000e+00	5.000000000000000e-02	5.000000000000000e-02   1
