# Type	nodeCrdX	nodeCrdY	nodeCrdZ
AuxNode	-6.325532277059454e-03	2.580581965137452e-03	3.024066786659457e-03
AuxNode	-2.001089740461579e-03	4.999068831521339e-02	3.631585767199590e-02
AuxNode	-7.621734771135688e-04	2.928371986582783e-02	4.233513890569292e-02
AuxNode	-3.838630585379532e-03	1.725778404887591e-02	1.372966535963296e-02
AuxNode	-1.366998006656614e-03	3.735701228107129e-02	2.007218518686202e-02
AuxNode	-5.392709438543489e-03	3.196679765271793e-02	4.404110418991198e-03
AuxNode	-2.242953037928611e-03	9.418866950354755e-03	2.514430415454721e-02
AuxNode	-2.653154006413902e-03	3.835103662798262e-02	6.412291194021592e-04
AuxNode	-3.061376841687342e-03	4.715130308534077e-02	1.086121921339757e-02
AuxNode	-7.833430682586198e-04	2.144031023952876e-02	7.202748934847437e-03
AuxNode	-2.230379284812206e-03	1.713447258717200e-02	4.664620649454137e-02
AuxNode	-2.623444429535077e-03	4.199136320000210e-02	1.467358220920821e-02
AuxNode	-2.301507983939820e-03	3.202653868011163e-02	3.171426799054277e-02
AuxNode	-2.074696476469032e-03	4.520627573744052e-02	2.492114839646748e-03
AuxNode	-5.193515661069542e-04	9.882417268023842e-03	1.748390379633336e-02
AuxNode	-3.609120170005878e-03	2.103870434441429e-02	3.581541608484611e-02
AuxNode	-2.908182081898469e-03	7.887570261053745e-03	3.252873266630182e-02
AuxNode	-4.204365277395448e-03	8.708874824888314e-03	8.487673390533879e-03
AuxNode	-3.347859518743293e-03	3.496121690595261e-02	2.652399716916719e-02
AuxNode	-2.362545248844938e-03	3.244750469869861e-02	1.417303852513749e-02
AuxNode	-2.118800628038001e-03	2.065126868147096e-02	2.925629907100512e-02
AuxNode	-1.151897709348329e-03	4.245046879117868e-02	3.458937593294491e-02
AuxNode	-3.596699175958021e-03	2.478469385355225e-02	1.782407769153998e-02
AuxNode	-2.466967855876120e-03	8.298456011967126e-03	4.897972393541143e-02
AuxNode	-2.490764266265780e-03	4.827085572519785e-03	1.893810592140071e-02
AuxNode	-1.514125447760889e-05	3.676718649644618e-02	1.372166247562832e-02
AuxNode	2.076750484111814e-02	-2.913094092160187e-03	2.334576404787615e-02
AuxNode	4.799891025953842e-02	-9.311684786614260e-06	3.631585767199590e-02
AuxNode	3.457666540745723e-02	-3.685849513076017e-03	1.609994305179528e-02
AuxNode	1.788772374657330e-02	-3.739861234585973e-04	1.036274413528356e-02
AuxNode	8.401565460998684e-05	-6.799202720907116e-04	4.667258244811313e-02
AuxNode	9.155014001850592e-04	-2.606817525557109e-05	2.025489719640254e-02
AuxNode	4.693862315831266e-02	-2.848696914659228e-03	1.086121921339757e-02
AuxNode	2.937493592712295e-02	-2.750862490352932e-03	4.046188549537010e-02
AuxNode	2.206379044338871e-02	-2.967092987629219e-03	4.613272036135505e-02
AuxNode	3.729451842472247e-02	-4.009224161252850e-04	4.465407093154364e-02
AuxNode	4.429210562257988e-02	-5.986336961072355e-04	1.751841392162378e-02
AuxNode	1.783886192627632e-02	-1.520334292055642e-03	3.137218836766453e-02
AuxNode	2.877785543544193e-03	-2.397599432591921e-03	6.642932808565889e-03
AuxNode	4.500662595224820e-02	-5.826364928303282e-03	4.154775717379691e-02
AuxNode	1.041045238917158e-02	-2.494893709852300e-03	3.991285452464001e-02
AuxNode	1.084180908242574e-02	-7.460762016148273e-04	6.400245653615433e-03
AuxNode	1.610403243669510e-02	-2.690940431293296e-03	3.847330118666986e-02
AuxNode	1.799130067365751e-02	-3.658201150421869e-04	1.734231149949250e-03
AuxNode	1.046048934703618e-02	-1.944390559109721e-03	1.202952544251719e-02
AuxNode	5.212509018542567e-03	-3.367160508368980e-03	3.474680142757332e-02
AuxNode	1.199060421132093e-02	-2.022343312178640e-03	3.055340321563733e-02
AuxNode	2.977571710765273e-02	-9.839275249491491e-04	5.759111553993557e-04
AuxNode	2.795797693983444e-02	-2.868406351897716e-03	3.129640231293839e-02
AuxNode	3.882949900027904e-02	-4.239242483284056e-03	3.381635470056246e-02
AuxNode	2.359813771081589e-02	-3.027108138970586e-05	4.036201143991903e-02
AuxNode	7.848015785351848e-03	-1.265921018099858e-04	2.539792838398396e-02
AuxNode	2.536184859744795e-02	-3.386961870198976e-03	1.586642443608280e-02
AuxNode	7.970476269204402e-03	-1.407026560502629e-03	1.719170246868488e-02
AuxNode	3.372338079533634e-02	-2.521600792313519e-04	3.440043099211803e-02
AuxNode	1.343977269257684e-02	-3.131353738811522e-03	4.820773208496967e-02
AuxNode	3.541363715443329e-02	-9.070599957264336e-06	4.401579674882639e-04
AuxNode	1.631189079958986e-02	-2.510918665078223e-03	1.675370496740444e-02
AuxNode	5.044468720404472e-03	-2.917543961993327e-03	4.202023417723983e-02
AuxNode	3.796959527343732e-02	2.464869420739930e-02	-2.735642106258318e-03
AuxNode	8.176437803040249e-03	2.254613893977578e-02	-1.056393600374732e-03
AuxNode	8.401565460998684e-05	4.932007972790929e-02	-3.327417551886876e-03
AuxNode	2.873043159478834e-02	8.065452313621551e-03	-4.715280450513407e-03
AuxNode	4.060031844039002e-02	1.238481058494120e-02	-1.507160992395430e-03
AuxNode	1.651433489384352e-02	2.413181032962453e-03	-4.779229177859189e-03
AuxNode	7.306482632824152e-03	2.999174457532994e-03	-1.796606039376765e-03
AuxNode	1.938527099151281e-02	4.194208809843136e-02	-7.695959608211567e-05
AuxNode	8.849012350776670e-03	3.029927892489273e-02	-2.516889557264403e-03
AuxNode	3.019538903780798e-02	2.824179836076498e-02	-4.985714154561838e-03
AuxNode	2.206379044338871e-02	4.703290701237078e-02	-3.867279638644958e-03
AuxNode	4.776962071518780e-02	1.713447258717200e-02	-3.353793505458634e-03
AuxNode	2.152420435654712e-02	2.895407321962956e-02	-2.403220753324956e-03
AuxNode	8.630742775329176e-03	4.369671903147344e-02	-2.055628847881352e-03
AuxNode	4.177125347179521e-02	3.670173308276586e-02	-3.335824662284846e-03
AuxNode	3.344436911221964e-02	1.905961583408916e-02	-3.818826055649177e-04
AuxNode	2.008625721643815e-02	9.052557871383732e-03	-4.631169281955061e-03
AuxNode	2.202380557984518e-02	2.167352679804284e-02	-3.375154032009511e-03
AuxNode	3.415232707947554e-02	1.171947337547746e-02	-6.060727219801068e-04
AuxNode	3.943311683428141e-02	6.874969297081157e-03	-4.872065747028663e-03
AuxNode	3.619096674955131e-02	3.661339656951664e-02	-4.054003977685197e-04
AuxNode	3.541202093798536e-02	3.216836002155246e-02	-3.301461213633790e-03
AuxNode	2.605197181827235e-03	6.798844140382038e-03	-3.642245688540907e-03
AuxNode	4.753303214412388e-02	8.298456011967126e-03	-1.020276064588571e-03
AuxNode	2.379035426876348e-02	2.616553621857632e-03	-1.961064326313461e-03
AuxNode	1.343977269257684e-02	4.686864626118848e-02	-1.792267915030336e-03
AuxNode	5.008401565460999e-02	-6.799202720907116e-04	4.667258244811313e-02
AuxNode	5.091550140018506e-02	-2.606817525557109e-05	2.025489719640254e-02
AuxNode	5.239159274528910e-02	-3.724054225815995e-03	2.730142088038569e-02
AuxNode	5.287778554354419e-02	-2.397599432591921e-03	6.642932808565889e-03
AuxNode	5.218902953367718e-02	-2.823969827996618e-03	1.411038790308853e-02
AuxNode	-2.001089740461579e-03	-9.311684786614260e-06	3.631585767199590e-02
AuxNode	5.493328652710858e-02	3.371778042399118e-02	5.182067218973770e-02
AuxNode	5.353364440575951e-02	4.467357482506994e-02	5.045473564485099e-02
AuxNode	-2.653154006413902e-03	3.835103662798262e-02	5.064122911940216e-02
AuxNode	1.799130067365751e-02	-3.658201150421869e-04	5.173423114994925e-02
AuxNode	2.977571710765273e-02	-9.839275249491491e-04	5.057591115539936e-02
AuxNode	3.541363715443329e-02	-9.070599957264336e-06	5.044015796748827e-02
AuxNode	7.306482632824152e-03	5.299917445753299e-02	-1.796606039376765e-03
AuxNode	2.379035426876348e-02	5.261655362185763e-02	-1.961064326313461e-03
AuxNode	8.401565460998684e-05	-6.799202720907116e-04	-3.327417551886876e-03
AuxNode	5.008401565460999e-02	-6.799202720907116e-04	-3.327417551886876e-03
AuxNode	-4.143749673970972e-03	2.720193901323684e-02	2.932597581359123e-02
AuxNode	-3.289247539523223e-03	2.526404334481217e-02	2.830034141669334e-02
AuxNode	-3.279318901459305e-03	4.659786490369563e-02	2.421603086434872e-02
AuxNode	-2.873241731673777e-03	4.774125314862405e-02	2.473101200215487e-02
AuxNode	-2.785337921928395e-03	4.363582915420629e-02	4.698569048250942e-02
AuxNode	-2.400994597737053e-03	1.718514930766943e-02	1.997650999554910e-02
AuxNode	-2.324413872678355e-03	2.944797294054370e-02	1.834870021154857e-02
AuxNode	-2.320096744930169e-03	1.203851086997716e-02	3.584981293884845e-02
AuxNode	-2.299014829674815e-03	1.172678331579651e-02	3.558354428930141e-02
AuxNode	-2.275000530050587e-03	4.300291396955389e-02	2.911072830101538e-02
AuxNode	-2.221589489247172e-03	1.526220331828437e-02	2.264469499211686e-02
AuxNode	-2.220566198559447e-03	2.988446306230608e-02	1.836180433176264e-02
AuxNode	-2.154448785390498e-03	1.872531459232669e-02	2.238728051577976e-02
AuxNode	-2.103944659681964e-03	1.543088537639049e-02	3.672203885370836e-02
AuxNode	-2.072472332499132e-03	4.194641586536678e-02	2.532709964313137e-02
AuxNode	-1.973478000391001e-03	5.468701302158704e-02	4.542545761791008e-02
AuxNode	-1.915762942192862e-03	1.740095795532956e-02	2.176667503012696e-02
AuxNode	-1.724426930546272e-03	5.350130638710788e-02	4.236328817561651e-02
AuxNode	-1.662942147247399e-03	1.670813151093047e-02	3.541572113345239e-02
AuxNode	-1.613680423332073e-03	4.627991790269685e-02	1.699601021882948e-02
AuxNode	-1.532316414773419e-03	3.666595381240026e-02	3.932012294020207e-02
AuxNode	-1.501299366847592e-03	6.874645668672370e-03	4.642021692255988e-03
AuxNode	-1.487216132068496e-03	7.769365647883681e-03	4.460320089783323e-02
AuxNode	-1.358743184189342e-03	6.816725306720581e-03	3.472242414848944e-03
AuxNode	-1.283301668194284e-03	4.377308919807562e-03	4.359542996646967e-02
AuxNode	-1.283301668194282e-03	5.437730891980756e-02	4.359542996646966e-02
AuxNode	-1.195311900310483e-03	3.818900631840608e-02	3.793195831568993e-02
AuxNode	-1.145997445864357e-03	2.473846359252846e-02	1.332858701100904e-02
AuxNode	-1.125501672665073e-03	3.367433273531163e-03	8.430013125725506e-03
AuxNode	-1.124935474609580e-03	2.863736502694377e-02	1.241101047770850e-02
AuxNode	-1.115466708727225e-03	5.159911972756122e-02	1.467717339804151e-02
AuxNode	-1.087805556350210e-03	3.540151386867314e-02	4.060085173028267e-02
AuxNode	-1.044354833168629e-03	5.189508165172255e-02	1.427706051726981e-02
AuxNode	-1.036316831452621e-03	1.415681169447119e-02	3.780916319720675e-02
AuxNode	-1.028617234918878e-03	2.948368323799926e-03	8.412815371634946e-03
AuxNode	-9.933292893905604e-04	2.853191035632754e-02	3.341763863010748e-03
AuxNode	-9.691140489301855e-04	5.310532666350847e-02	2.524884890084293e-02
AuxNode	-9.401578708087164e-04	2.367955676494675e-02	2.090604048345069e-02
AuxNode	-9.264927833255145e-04	3.432516967718043e-02	8.644860145359434e-03
AuxNode	-8.349848264298989e-04	5.233937141414469e-02	7.910278209712556e-03
AuxNode	-8.014711293213668e-04	2.206351758466621e-02	2.456427338165864e-02
AuxNode	-7.985774343199966e-04	4.388523900713379e-02	2.227279554022941e-02
AuxNode	-7.673119934175944e-04	2.191082667131134e-02	1.538124503485863e-02
AuxNode	-7.315927205033990e-04	5.185813457496447e-02	1.463879380828782e-02
AuxNode	-6.885964512859267e-04	1.458532729741507e-02	4.170217168583563e-02
AuxNode	-6.673798890340454e-04	2.831097934330849e-02	3.563497678857061e-02
AuxNode	-6.580296935904065e-04	3.741312616537870e-02	3.499453413943186e-02
AuxNode	-6.520853474885433e-04	1.357464068212286e-02	2.910746044131138e-02
AuxNode	-6.472976195860880e-04	1.758319686647986e-02	1.594498372806912e-03
AuxNode	-6.448861408714108e-04	1.285210633287551e-02	1.000006463626260e-02
AuxNode	-6.236831844686980e-04	2.825410997068945e-02	3.573794976295708e-02
AuxNode	-6.128134657521428e-04	1.649012158845403e-02	3.052298389299003e-02
AuxNode	-6.109228243629328e-04	3.169249723051395e-02	1.867301984960043e-02
AuxNode	-5.950826869395159e-04	3.585934791328454e-02	3.431970217263683e-02
AuxNode	-5.722197350682802e-04	2.461925163714086e-02	1.122616824465972e-02
AuxNode	-5.690336903954852e-04	2.475728548290314e-03	8.299307589377383e-03
AuxNode	-5.690336903954574e-04	5.247572854829029e-02	8.299307589377376e-03
AuxNode	-5.624629711745257e-04	4.379654753110538e-02	4.792386053724373e-02
AuxNode	-4.736894802350152e-04	1.810438465694385e-02	3.033815860922793e-03
AuxNode	-4.529383530237755e-04	4.284274667518783e-02	4.847473588858692e-02
AuxNode	-4.473898324148127e-04	2.200181971641328e-02	2.386894107203982e-02
AuxNode	-4.389618662707442e-04	2.541753788832211e-02	1.232371310878468e-02
AuxNode	-4.301370505066021e-04	8.814899379102837e-03	1.222222851073554e-02
AuxNode	-3.992720576758062e-04	3.113988179499204e-02	3.640405299170561e-02
AuxNode	-3.583723524135942e-04	1.425388163893198e-02	1.677432953532672e-02
AuxNode	-3.463164192891825e-04	5.389487154685035e-02	5.030725903957793e-02
AuxNode	-3.353371952846992e-04	2.546576407547217e-02	3.566126547505395e-03
AuxNode	-2.773416573773266e-04	4.281317845856486e-02	7.676697976563278e-03
AuxNode	-2.561957634769230e-04	4.276800848066167e-02	7.254485353579183e-03
AuxNode	-2.058913545504044e-04	5.123266074088095e-02	2.600453695848941e-02
AuxNode	-2.014398438564846e-04	3.344522505729262e-02	1.868887828566875e-03
AuxNode	-1.085410735074555e-04	4.379926340616979e-02	1.958955460053980e-02
AuxNode	-1.014247719019479e-05	4.630833600346571e-02	4.155240137004639e-02
AuxNode	-6.269729018062650e-06	2.589580342480383e-02	-2.629138475811599e-03
AuxNode	-6.186005745438886e-06	4.630951653731609e-02	4.155168125978195e-02
AuxNode	4.947967797339862e-05	5.013934485464230e-02	5.263455396003896e-02
AuxNode	1.860311223264486e-04	5.414785648388101e-02	4.991136474207636e-02
AuxNode	1.877668496085777e-04	5.039940079457429e-02	5.264060692009188e-02
AuxNode	8.489188662442761e-04	5.511274530925952e-02	2.254550167230605e-02
AuxNode	1.164944941787502e-03	3.451993448062146e-02	-2.698176877268512e-03
AuxNode	1.244389090952833e-03	5.263958548855274e-02	4.170978314539298e-02
AuxNode	1.364927399856791e-03	4.853716269391364e-02	5.198993336875379e-02
AuxNode	1.649656315754752e-03	5.468317330061170e-02	2.389257148281859e-02
AuxNode	1.678202335164393e-03	5.480601113946880e-02	2.367372405889979e-02
AuxNode	1.751657796405037e-03	5.331601190186557e-02	4.268856492612964e-02
AuxNode	2.074650760132857e-03	2.561237181158662e-02	-3.453647076484599e-03
AuxNode	2.405140925763691e-03	5.505053573838473e-02	1.829059925222046e-02
AuxNode	3.163740048369303e-03	3.837598025381034e-02	-4.070041579654505e-04
AuxNode	3.222436639738507e-03	3.928794571780359e-02	-1.126713443301113e-04
AuxNode	3.469936391899000e-03	-2.836685900201854e-05	5.164722216793732e-02
AuxNode	3.547698406961256e-03	5.278735285888628e-02	4.451314127628010e-02
AuxNode	3.555928597975559e-03	2.543622689911225e-02	-2.632652690438766e-03
AuxNode	3.850693320455069e-03	1.674036355325120e-02	-1.824325109766432e-03
AuxNode	3.883318789336787e-03	5.313246668113055e-02	2.416501257006398e-02
AuxNode	3.909441946013907e-03	1.644784934648220e-02	-2.069167684229020e-03
AuxNode	3.995935404893042e-03	1.686451755028703e-02	-2.140663039884945e-03
AuxNode	4.303052815651201e-03	3.259718468485556e-02	-2.689878761921284e-03
AuxNode	4.380180039068649e-03	1.730918644090632e-02	-2.243506071700949e-03
AuxNode	4.852983081720300e-03	3.616390350662212e-02	-2.705546041932994e-03
AuxNode	4.856359487009420e-03	4.040521827007872e-02	-1.103433722182050e-03
AuxNode	5.134806667307731e-03	5.426041002704306e-02	1.927968942371941e-02
AuxNode	5.627075910889987e-03	5.397997509150638e-02	2.117014559405336e-02
AuxNode	5.790583345647186e-03	5.313704801641200e-02	1.894466179402481e-02
AuxNode	5.898189530459149e-03	5.362778519869364e-02	2.145876239829567e-02
AuxNode	6.282561303050988e-03	3.487741252402087e-02	-2.699965023914293e-03
AuxNode	6.358459740169086e-03	6.157289108071995e-04	5.357486708683159e-02
AuxNode	6.358459740169085e-03	5.061572891080720e-02	5.357486708683159e-02
AuxNode	6.735508886915190e-03	4.864102873557376e-02	5.250997787312700e-02
AuxNode	6.746430398260612e-03	2.722702458531196e-02	5.336195005446372e-02
AuxNode	6.938317866133937e-03	5.088309600972526e-02	3.110110300337951e-02
AuxNode	6.938776346348804e-03	5.393455245193663e-02	2.730698321642476e-02
AuxNode	7.102567616123340e-03	9.438587583606379e-03	-8.488785808042085e-04
AuxNode	7.139393850925308e-03	1.027672575277669e-02	-1.474291192830782e-03
AuxNode	7.153384386349627e-03	5.115609652751763e-02	3.094582212041803e-02
AuxNode	7.163242376457748e-03	5.117350064442525e-02	3.093809393432295e-02
AuxNode	7.166039894955793e-03	5.116960363351603e-02	3.094061979632425e-02
AuxNode	7.171447034047436e-03	1.036270422506263e-02	-1.436458262476127e-03
AuxNode	7.639486711939308e-03	4.805333871407857e-02	5.185156616126761e-02
AuxNode	7.983607417795382e-03	4.803113098291902e-02	5.169299887205543e-02
AuxNode	8.319956687098021e-03	3.669681111521141e-03	5.412425905146714e-02
AuxNode	8.319956687098021e-03	5.366968111152114e-02	4.124259051467131e-03
AuxNode	8.319956687098022e-03	5.366968111152114e-02	5.412425905146713e-02
AuxNode	8.336235826127554e-03	5.444204758370037e-02	5.865479207340679e-03
AuxNode	8.651412579303316e-03	-8.017040491124878e-04	4.435900327096599e-02
AuxNode	9.276020831070049e-03	3.132022124565757e-02	5.280585411748245e-02
AuxNode	9.281628417163967e-03	5.138580204361672e-02	3.686418228220549e-02
AuxNode	9.543746282834838e-03	5.457404959476435e-02	2.368212434839415e-02
AuxNode	9.596827038401440e-03	4.777754559065348e-02	5.143782602175237e-02
AuxNode	1.003855617979296e-02	5.426888946908293e-02	2.359099968186898e-02
AuxNode	1.017750809409647e-02	2.430884810209287e-02	5.438597167045562e-02
AuxNode	1.017789931398558e-02	5.082325213613002e-02	3.518149661135977e-02
AuxNode	1.017917436437377e-02	3.578668460644265e-02	-4.332910979605026e-03
AuxNode	1.051285015830807e-02	5.149199116558068e-02	3.456490266764642e-02
AuxNode	1.081454429078911e-02	5.410112661345051e-02	8.562572550947528e-03
AuxNode	1.136977584230092e-02	1.350412083757759e-02	-2.297911161893708e-03
AuxNode	1.148062059262168e-02	5.040611332068253e-02	5.126988776360870e-02
AuxNode	1.150568821152305e-02	5.169816872987972e-02	4.269936297812088e-02
AuxNode	1.153722441623665e-02	1.824022567304801e-02	-1.680371083886333e-03
AuxNode	1.270096230767200e-02	4.035647236304551e-02	-7.240208833008911e-04
AuxNode	1.281260130526933e-02	5.395525370850950e-02	1.309010944088203e-02
AuxNode	1.281866379245236e-02	5.174366436879355e-02	4.972252719705927e-02
AuxNode	1.282772888519557e-02	5.396419254067589e-02	1.316594042311413e-02
AuxNode	1.283134346917743e-02	5.397461179558263e-02	1.316127813455974e-02
AuxNode	1.284621682945261e-02	1.442347436932951e-02	-9.846941088318632e-04
AuxNode	1.285494630455434e-02	3.824981284957702e-03	-5.743772307245704e-04
AuxNode	1.311412777427102e-02	3.890203497872609e-02	-9.950309402857694e-04
AuxNode	1.350088248882597e-02	5.149907996960617e-02	-2.925495017960106e-05
AuxNode	1.354587763095770e-02	5.246676923713378e-02	1.495519667265104e-02
AuxNode	1.360892570908788e-02	3.033183486587805e-02	-1.138740497195251e-03
AuxNode	1.392885125526487e-02	5.268674769429868e-02	1.513408126837282e-02
AuxNode	1.395952958994183e-02	2.206332787974424e-02	-2.973763022616025e-03
AuxNode	1.398048681426765e-02	5.265451195150780e-02	1.516058372087422e-02
AuxNode	1.405251124187498e-02	4.629669905925023e-02	5.328194080529843e-02
AuxNode	1.405650776678160e-02	5.134523228089496e-02	3.436936762012803e-02
AuxNode	1.407893521666426e-02	4.632537281842825e-02	5.328197176664645e-02
AuxNode	1.420583268897886e-02	5.481615210143845e-02	1.376368167443061e-02
AuxNode	1.428318209766153e-02	4.338956606746637e-02	5.193335035336717e-02
AuxNode	1.428644863941373e-02	4.344547102267587e-02	5.192171235633744e-02
AuxNode	1.429440476314983e-02	5.474052297007338e-02	1.390134699199084e-02
AuxNode	1.450623017698008e-02	3.043837558128979e-02	-5.314377566009681e-04
AuxNode	1.499046992765058e-02	3.092758330209820e-02	-3.058541662526327e-04
AuxNode	1.501838064999424e-02	3.839825790867939e-02	-1.085398444138130e-03
AuxNode	1.518851493219894e-02	5.221368524811471e-02	3.438014800966008e-02
AuxNode	1.524992992702531e-02	5.034623900776632e-02	2.645772351464714e-02
AuxNode	1.532995576833325e-02	5.039996916432046e-02	2.642676959146625e-02
AuxNode	1.559868875170535e-02	3.789275886019253e-02	-7.388911836366027e-04
AuxNode	1.577421189794665e-02	3.769686259952954e-02	-1.355170389424374e-03
AuxNode	1.616680067110040e-02	2.284943437124851e-02	-3.499849217640235e-03
AuxNode	1.617499307313192e-02	2.285331227802201e-02	-3.497997719916434e-03
AuxNode	1.623334134067376e-02	5.201569820702449e-02	2.541342468748322e-02
AuxNode	1.634031895034166e-02	5.179193516409793e-02	3.996206437991907e-02
AuxNode	1.637028970472303e-02	2.850832071940313e-02	-2.515141036383496e-03
AuxNode	1.671750707604162e-02	5.259153162493538e-02	2.452330633403207e-02
AuxNode	1.705904505181734e-02	5.482684598622128e-02	5.837189584607660e-04
AuxNode	1.705904505181736e-02	5.482684598622128e-02	5.058371895846077e-02
AuxNode	1.714793995832474e-02	1.318595475778511e-02	-2.055373328450796e-03
AuxNode	1.718622467252830e-02	1.302623031181977e-02	-2.250854368403638e-03
AuxNode	1.757722877629503e-02	5.597437905775555e-02	8.006464982308482e-03
AuxNode	1.759439562925052e-02	5.597403752961192e-02	7.994146025889203e-03
AuxNode	1.762989026083098e-02	3.088203740752278e-02	-1.104727044586097e-03
AuxNode	1.795573437070762e-02	5.378143394857671e-02	3.210889918806107e-02
AuxNode	1.801612095727792e-02	2.468655710387809e-02	-1.463109306634811e-03
AuxNode	1.802885648460193e-02	2.427008168697205e-02	-9.427621300006671e-04
AuxNode	1.826266361477329e-02	5.551146437550278e-02	1.482464118531111e-03
AuxNode	1.859848792821418e-02	1.439220564213585e-02	-2.898480751299752e-03
AuxNode	1.870897020662424e-02	5.595669294264068e-03	5.053761103392821e-02
AuxNode	1.870897020662424e-02	5.559566929426407e-02	5.376110339282035e-04
AuxNode	1.870897020662424e-02	5.559566929426407e-02	5.053761103392821e-02
AuxNode	1.892194775278216e-02	3.910735383599694e-02	5.451132038616092e-02
AuxNode	1.920211871467696e-02	5.527050604798118e-02	5.028705412203582e-02
AuxNode	2.017475113395499e-02	5.357300900919694e-02	2.291352795476206e-02
AuxNode	2.025240423744019e-02	5.269825938332809e-02	4.162106016318050e-02
AuxNode	2.030438084677653e-02	5.217699181045911e-02	1.624630409129464e-02
AuxNode	2.031286927797677e-02	5.184782536571009e-02	1.645224272489200e-02
AuxNode	2.055156048947149e-02	5.144065821433216e-02	1.750210390472466e-02
AuxNode	2.060995926914664e-02	3.634772866323292e-02	-2.078536768993284e-03
AuxNode	2.070506167132801e-02	-1.080965220189539e-04	2.847617274132485e-02
AuxNode	2.083793156604233e-02	3.526203301885090e-02	-2.606746678760867e-03
AuxNode	2.092630100754878e-02	3.493303837300601e-02	-2.594285677451876e-03
AuxNode	2.099863429377833e-02	4.577832282691521e-02	5.370451353971255e-02
AuxNode	2.104457333416237e-02	1.588552796543660e-02	-2.347469622003384e-03
AuxNode	2.108370004856576e-02	1.657079173047875e-02	-2.342221637801855e-03
AuxNode	2.146141111294176e-02	5.290132947516041e-02	1.988983790699795e-02
AuxNode	2.154810461549253e-02	3.986235265656157e-02	5.524486078639137e-02
AuxNode	2.156294337734306e-02	6.606404740643545e-03	-5.388440237867097e-04
AuxNode	2.173882952299390e-02	4.605305663813594e-02	5.310741049234041e-02
AuxNode	2.178472854060557e-02	5.281499320647464e-02	4.379639935510837e-02
AuxNode	2.203788588744819e-02	3.955723264170050e-02	5.500758021043781e-02
AuxNode	2.214478335460239e-02	2.914292235406290e-02	5.278016879317361e-02
AuxNode	2.231173962818837e-02	-1.447953639337630e-03	3.493494912580328e-02
AuxNode	2.232560406482727e-02	-1.584174573499265e-03	3.504338844613696e-02
AuxNode	2.234830453363412e-02	-1.585510438710805e-03	3.513185401484048e-02
AuxNode	2.236405333907863e-02	-1.609726742474313e-03	3.497935521065777e-02
AuxNode	2.265253698985542e-02	1.484309219429587e-02	-3.946062470540438e-03
AuxNode	2.364874583480070e-02	5.295885924746299e-02	1.153520922638527e-02
AuxNode	2.365126820201716e-02	5.295567394144672e-02	1.153413998829219e-02
AuxNode	2.385081503164422e-02	-4.508454873238098e-04	5.296473729908102e-02
AuxNode	2.385081503164422e-02	4.954915451267620e-02	5.296473729908101e-02
AuxNode	2.386876872935516e-02	-2.383456570426383e-03	3.455117432798210e-02
AuxNode	2.398464169127073e-02	4.138672817161170e-02	-5.211178297158110e-04
AuxNode	2.419266088443900e-02	7.526658416448602e-03	-1.166205978176675e-03
AuxNode	2.446245385372783e-02	-3.227862661972867e-04	5.286312890071461e-02
AuxNode	2.476200365160049e-02	5.228475259104045e-02	2.470536413949792e-02
AuxNode	2.494532881467200e-02	-3.347267937266083e-04	1.936581590517176e-02
AuxNode	2.543341915811182e-02	1.295614716669657e-02	-2.751215866238958e-03
AuxNode	2.583963685009406e-02	4.886064147756865e-02	-1.544873077620156e-03
AuxNode	2.659209875440058e-02	5.275472656960592e-02	4.369680986995144e-02
AuxNode	2.685486461213383e-02	2.950558092779421e-02	-3.674220460052622e-04
AuxNode	2.690569589805044e-02	-1.929290652614661e-03	2.611889568132864e-02
AuxNode	2.725906992789805e-02	5.253257777185449e-02	4.021209065368923e-02
AuxNode	2.727994289338542e-02	5.270758542172516e-02	4.305720733740380e-02
AuxNode	2.731138582165623e-02	-2.220460120543183e-04	6.082790753141902e-03
AuxNode	2.756779937648109e-02	5.020225881800968e-03	-7.110376336012022e-05
AuxNode	2.757657952257074e-02	5.198402865216144e-02	4.393787891344542e-02
AuxNode	2.761918277151741e-02	5.343197411292945e-02	5.074437606297216e-02
AuxNode	2.769131470790528e-02	4.736080365534431e-02	-4.089345687659603e-03
AuxNode	2.771499706865178e-02	2.308431160555359e-02	-2.487046180929136e-03
AuxNode	2.784113517958318e-02	-5.781716323463490e-04	2.673742456850597e-02
AuxNode	2.859338698267610e-02	5.310958048537557e-02	-2.011558281374214e-03
AuxNode	2.859338698267610e-02	5.310958048537556e-02	4.798844171862578e-02
AuxNode	2.874008274344229e-02	4.632345975598658e-02	-3.949678975015030e-03
AuxNode	2.874258444671660e-02	1.035993897301284e-02	5.138159770291104e-02
AuxNode	2.877514569022630e-02	4.210723561224304e-02	-1.443754384282799e-03
AuxNode	2.881207471296079e-02	5.148544709106236e-02	4.516752873311310e-02
AuxNode	2.891434793033214e-02	2.299310764831688e-02	-1.709776485197832e-03
AuxNode	2.931930774899364e-02	-4.550227786907965e-04	1.679245412364282e-02
AuxNode	2.934739992152978e-02	-3.133064395746199e-04	1.586530336737650e-02
AuxNode	2.959183354760686e-02	2.180970490816849e-02	5.223402561730726e-02
AuxNode	2.975845626690551e-02	9.373416184725572e-03	5.219753675859513e-02
AuxNode	3.004287248922015e-02	-2.243205743917247e-03	2.633827829500830e-02
AuxNode	3.007494135975719e-02	1.954162839770103e-02	5.337644140171916e-02
AuxNode	3.020302239780863e-02	4.241898583652745e-02	-6.421579843892767e-04
AuxNode	3.037130710487722e-02	1.977676046788736e-02	5.363833023227172e-02
AuxNode	3.083100784703779e-02	4.395103621729975e-02	-1.110696989572091e-03
AuxNode	3.083132818048991e-02	5.208944644769848e-02	-4.198375310071829e-03
AuxNode	3.083132818048991e-02	5.208944644769848e-02	4.580162468992818e-02
AuxNode	3.092691174580200e-02	-2.700546601007484e-04	6.183488109149917e-03
AuxNode	3.103638862577526e-02	2.940106607310419e-02	5.195361143305676e-02
AuxNode	3.175420682374751e-02	5.160808558313121e-02	-4.200583928218106e-03
AuxNode	3.175420682374751e-02	5.160808558313121e-02	4.579941607178190e-02
AuxNode	3.196397409183914e-02	5.482871355661326e-02	3.270365343028300e-02
AuxNode	3.211549843041502e-02	5.452435689759001e-02	3.502202408618259e-02
AuxNode	3.221729649740642e-02	-2.810282098450084e-03	9.826927874298119e-03
AuxNode	3.234781297648066e-02	5.124991329801356e-02	-3.482160213611692e-03
AuxNode	3.255443165850168e-02	4.100400251007895e-02	-7.793934239681510e-04
AuxNode	3.326167355801748e-02	3.387652024504260e-02	5.338371602107211e-02
AuxNode	3.339152144231788e-02	4.531699978964684e-02	-2.741086909352842e-03
AuxNode	3.342584938366915e-02	-2.146541809027956e-03	2.211517042106135e-02
AuxNode	3.343244054385084e-02	-1.472888163190449e-03	2.932634084447439e-02
AuxNode	3.348744397824125e-02	-9.588699282466317e-04	2.387455149711668e-02
AuxNode	3.353215127754187e-02	4.449584191986076e-02	-1.759091935279451e-03
AuxNode	3.354978192111383e-02	4.453239142233987e-02	-1.802773579838879e-03
AuxNode	3.355141249192830e-02	4.453456342919541e-02	-1.719457497315212e-03
AuxNode	3.380976498422502e-02	4.212002493533781e-02	-1.275837078390738e-03
AuxNode	3.392359552116510e-02	4.481667105105883e-02	-2.534241957527555e-03
AuxNode	3.413787223219145e-02	5.465847894118369e-02	4.526259233885340e-02
AuxNode	3.437210356724062e-02	5.492370660763918e-02	3.501516101378181e-02
AuxNode	3.550542841061437e-02	-9.999427103795358e-04	3.932530508051586e-02
AuxNode	3.558945557697490e-02	-5.099441300443703e-04	2.604321110678163e-02
AuxNode	3.607209632104091e-02	1.831908177162171e-02	5.474835289645122e-02
AuxNode	3.628111040243352e-02	1.787296862752748e-02	5.453117728876597e-02
AuxNode	3.633079283348578e-02	1.920942226518523e-02	5.414536071217884e-02
AuxNode	3.651484291230124e-02	5.380109764094831e-02	-2.300359404466977e-03
AuxNode	3.651484291230118e-02	5.380109764094833e-02	4.769964059553297e-02
AuxNode	3.677623662314480e-02	1.330513380088839e-02	5.390561034723083e-02
AuxNode	3.678679239234073e-02	7.300383505874166e-03	-4.827828225066593e-04
AuxNode	3.695254506974550e-02	1.493579592963292e-02	5.338853195864561e-02
AuxNode	3.755539530501045e-02	2.272308578029938e-02	5.265118896916934e-02
AuxNode	3.798184868881346e-02	4.515748989604842e-03	-2.642463025326084e-04
AuxNode	3.798184868881344e-02	5.451574898960478e-02	-2.642463025326622e-04
AuxNode	3.798184868881346e-02	5.451574898960485e-02	4.973575369746740e-02
AuxNode	3.824108473848385e-02	-1.626685692102379e-03	2.634883469225018e-02
AuxNode	3.852131437977498e-02	-1.518873202791778e-03	4.059102914157145e-03
AuxNode	3.878309829277648e-02	-1.373564270883762e-03	2.630380875718848e-02
AuxNode	3.882161465955725e-02	5.307101259118364e-02	-1.501054295811897e-03
AuxNode	3.893329434379877e-02	2.536661651794517e-02	5.351196260928327e-02
AuxNode	3.979051792491614e-02	4.941924869129102e-02	-9.387844404304506e-04
AuxNode	3.999578056619208e-02	-6.122198227531796e-04	1.289899168695205e-02
AuxNode	4.000562144428714e-02	-2.643964880353713e-03	5.850684306124601e-03
AuxNode	4.037235499745826e-02	-3.458449396202286e-03	2.267430816349773e-02
AuxNode	4.040130068960830e-02	3.538367773864678e-02	5.203686696647001e-02
AuxNode	4.075690615591227e-02	-9.288808295192432e-04	2.769156246920564e-02
AuxNode	4.079492412090099e-02	9.106719384956009e-03	5.394558423578448e-02
AuxNode	4.081378487676876e-02	3.612046933318944e-02	5.202688144753589e-02
AuxNode	4.090901339030729e-02	-2.809927204778271e-03	2.085133327869270e-02
AuxNode	4.108731332718264e-02	1.554099144166926e-02	5.305835383870947e-02
AuxNode	4.111488629692488e-02	-1.534913186787073e-03	3.017667277267091e-02
AuxNode	4.122366478091248e-02	-7.179178071508897e-04	1.097943152467662e-02
AuxNode	4.130936668804615e-02	3.786011057928063e-02	5.237538606201918e-02
AuxNode	4.139728419294880e-02	2.807789127963248e-02	-1.472336179693919e-04
AuxNode	4.151984929757487e-02	5.460934568680377e-02	1.831658970794503e-02
AuxNode	4.157530812528940e-02	3.745080134865281e-02	5.245165260641526e-02
AuxNode	4.159710064615212e-02	3.312746449872787e-02	-9.112045244670432e-05
AuxNode	4.163072708925630e-02	-1.271702047866913e-03	8.546678046005424e-03
AuxNode	4.190347533879048e-02	-5.159102417354264e-05	9.278325207948766e-03
AuxNode	4.193887912976043e-02	5.474795952119524e-02	1.838245060137342e-02
AuxNode	4.226666124275874e-02	5.234723744202298e-02	4.406420378882541e-02
AuxNode	4.262753969461688e-02	9.628891540753194e-03	5.383209652740329e-02
AuxNode	4.265803975647910e-02	5.312814318551491e-02	3.334845261017141e-02
AuxNode	4.284865097243105e-02	5.354974307522299e-02	3.334328256390455e-02
AuxNode	4.286605937860471e-02	2.119604145274280e-02	-3.286103787302584e-03
AuxNode	4.297543491006827e-02	5.203219118369010e-02	4.570277800954398e-02
AuxNode	4.321133945310097e-02	2.000296075191784e-02	-3.124530366658235e-03
AuxNode	4.331780471334061e-02	5.429031287771411e-02	3.382416627187570e-02
AuxNode	4.334398244212603e-02	4.868606265178306e-02	-3.386208121198653e-03
AuxNode	4.351806709738927e-02	5.399541155972890e-02	3.316127361190915e-02
AuxNode	4.366829380731725e-02	2.318811012488785e-02	-3.011417684143877e-03
AuxNode	4.369859742601603e-02	1.676474115646002e-02	-1.756158998116953e-04
AuxNode	4.388764703355320e-02	5.075615264587544e-02	4.345520394719812e-02
AuxNode	4.425370743117121e-02	5.082214387304319e-02	4.299952641640822e-02
AuxNode	4.452609716810834e-02	4.166981746082121e-02	-3.434824377991844e-03
AuxNode	4.476905606903327e-02	1.511388598796850e-02	5.303236642798043e-02
AuxNode	4.485612528921368e-02	1.182317868115416e-02	5.348070016362842e-02
AuxNode	4.486932996832699e-02	4.743007048277394e-02	-1.202159067586625e-03
AuxNode	4.493957285833791e-02	1.138546925609524e-02	5.327634177564381e-02
AuxNode	4.509290286911508e-02	1.491107870719510e-02	5.305269339083300e-02
AuxNode	4.530635018014907e-02	5.635339979377932e-02	3.764980166411931e-02
AuxNode	4.531127371667974e-02	5.633128602181273e-02	3.770449785895949e-02
AuxNode	4.568172521856467e-02	4.485572378856335e-02	-2.720602410977978e-03
AuxNode	4.589343695682339e-02	4.345329953358467e-02	-2.644738478197870e-03
AuxNode	4.602099921292105e-02	3.215302136207086e-02	-2.188331113573107e-03
AuxNode	4.603345470047238e-02	5.379140645458363e-02	4.670704826240310e-02
AuxNode	4.631546363146710e-02	3.256158741597141e-02	-2.166182285444168e-03
AuxNode	4.652759470227204e-02	2.293041958244889e-02	-4.154738006604777e-03
AuxNode	4.656817531151199e-02	-3.145373452664964e-03	2.492650751655430e-02
AuxNode	4.709749828431654e-02	4.343800551127006e-02	-2.964398495572392e-03
AuxNode	4.712675826832621e-02	-2.258746851375934e-03	2.473101200215488e-02
AuxNode	4.724070510985406e-02	8.023358629721547e-03	5.384195844387796e-02
AuxNode	4.732402918777263e-02	3.206450800781325e-02	-1.668716383758470e-03
AuxNode	4.740334740496827e-02	3.236635573710685e-02	-1.705388529341234e-03
AuxNode	4.743761897887216e-02	2.297269478143793e-02	-3.794237310271724e-03
AuxNode	4.770097475435927e-02	2.328068994632435e-02	-4.480583642578979e-03
AuxNode	4.788825833821207e-02	5.340887850792993e-02	2.392436010533083e-02
AuxNode	4.802652199960902e-02	5.468701302158705e-02	4.542545761791007e-02
AuxNode	4.827557306945372e-02	5.350130638710786e-02	4.236328817561647e-02
AuxNode	4.863911478368051e-02	5.322177615714291e-02	8.869138004203015e-03
AuxNode	4.864125681581064e-02	6.816725306720606e-03	5.347224241484896e-02
AuxNode	4.869265846444777e-02	5.362542682097949e-02	3.115036613160661e-02
AuxNode	4.869637404850764e-02	5.319189459593095e-02	8.696061520499059e-03
AuxNode	4.870501285324192e-02	5.221667277912487e-02	1.398914641399267e-02
AuxNode	4.871669833180572e-02	5.437730891980757e-02	4.359542996646967e-02
AuxNode	4.895564516683137e-02	5.189508165172255e-02	1.427706051726981e-02
AuxNode	4.897138276508112e-02	5.294836832379993e-02	8.412815371634946e-03
AuxNode	4.903088595106982e-02	5.310532666350849e-02	2.524884890084295e-02
AuxNode	4.926840727949662e-02	5.185813457496447e-02	1.463879380828784e-02
AuxNode	4.943096630960452e-02	5.247572854829032e-02	8.299307589377381e-03
AuxNode	4.943753702882547e-02	4.379654753110538e-02	-2.076139462756274e-03
AuxNode	4.954706164697623e-02	4.284274667518787e-02	-1.525264111413102e-03
AuxNode	4.965368358071082e-02	5.389487154685035e-02	5.030725903957792e-02
AuxNode	4.999373027098197e-02	2.589580342480384e-02	-2.629138475811598e-03
AuxNode	5.018603112232644e-02	5.414785648388101e-02	4.991136474207637e-02
AuxNode	5.018776684960859e-02	5.039940079457428e-02	2.640606920091871e-03
AuxNode	5.018776684960858e-02	5.039940079457428e-02	5.264060692009188e-02
AuxNode	5.066593687791828e-02	3.426698504471114e-02	-3.037437005382704e-03
AuxNode	5.081878939469819e-02	2.383449891793073e-02	3.660828229198811e-02
AuxNode	5.084891886624428e-02	5.511274530925950e-02	2.254550167230606e-02
AuxNode	5.112502946733798e-02	2.189718770527045e-02	4.392624917656469e-02
AuxNode	5.113740514673019e-02	5.542258312706295e-02	3.431221586646040e-02
AuxNode	5.116494494178750e-02	3.451993448062147e-02	-2.698176877268510e-03
AuxNode	5.121473094012152e-02	5.518099941686736e-02	3.378994642157553e-02
AuxNode	5.124186779805529e-02	5.011258296441459e-02	1.059626612918246e-02
AuxNode	5.124438909095284e-02	5.263958548855274e-02	4.170978314539298e-02
AuxNode	5.125515231810947e-02	3.466747328791910e-02	-2.698827864102666e-03
AuxNode	5.125515231810947e-02	3.466747328791911e-02	4.730117213589734e-02
AuxNode	5.136492739985679e-02	4.853716269391364e-02	1.989933368753781e-03
AuxNode	5.138245965079136e-02	6.964362873742828e-03	5.061496424860983e-02
AuxNode	5.146738018226658e-02	5.804974887284835e-03	3.356966765664132e-02
AuxNode	5.147912062788720e-02	6.261199040667573e-03	3.400867860562939e-02
AuxNode	5.164965631575476e-02	5.468317330061172e-02	2.389257148281861e-02
AuxNode	5.167820233516440e-02	4.806011139468820e-03	2.367372405889979e-02
AuxNode	5.167820233516440e-02	5.480601113946882e-02	2.367372405889979e-02
AuxNode	5.190194816176628e-02	3.213679871654769e-02	2.899719585887398e-02
AuxNode	5.199016479798344e-02	4.238441252528508e-02	1.192939867200384e-02
AuxNode	5.204235584034964e-02	4.238224332038950e-02	1.235539983166693e-02
AuxNode	5.204534473139673e-02	4.207993803678390e-02	1.215268527677230e-02
AuxNode	5.210215375472256e-02	4.284516701284585e-02	2.204783006049417e-02
AuxNode	5.211617257915169e-02	2.431904750993504e-02	3.938345874565537e-02
AuxNode	5.211678065413922e-02	1.271560689162980e-02	4.529596043644980e-02
AuxNode	5.222407632682301e-02	8.220762606249137e-03	2.769161079186996e-02
AuxNode	5.229275184025882e-02	3.473107320946002e-02	2.426794033301588e-02
AuxNode	5.231558252076928e-02	3.273462087624623e-02	1.365495301314340e-02
AuxNode	5.240514092576370e-02	5.505053573838471e-02	1.829059925222047e-02
AuxNode	5.240532805887613e-02	1.638806313122223e-02	9.702763792736128e-03
AuxNode	5.245721296671000e-02	1.284739686689614e-02	4.628071381481208e-02
AuxNode	5.257865651136953e-02	4.984315397504904e-02	3.149275887055769e-02
AuxNode	5.264101867349705e-02	1.943913739772219e-02	3.214110239762388e-02
AuxNode	5.268448665970512e-02	3.367010896643146e-02	1.704356454850049e-02
AuxNode	5.291236170474983e-02	1.180265535098706e-02	2.718751533792588e-02
AuxNode	5.297039606120300e-02	5.330573469713482e-02	3.818245694292625e-02
AuxNode	5.301234410175588e-02	1.203271204575810e-02	2.488027871304803e-02
AuxNode	5.316374004836933e-02	3.837598025381030e-02	-4.070041579654887e-04
AuxNode	5.316374004836930e-02	3.837598025381034e-02	4.959299584203455e-02
AuxNode	5.319597905105258e-02	3.888562216991676e-02	1.387675336226263e-03
AuxNode	5.322243663973854e-02	3.928794571780362e-02	-1.126713443301277e-04
AuxNode	5.322460149190247e-02	3.932944237804218e-02	1.365974082832426e-03
AuxNode	5.345888602803488e-02	3.572564911196802e-02	1.701749841635101e-02
AuxNode	5.346345654038936e-02	1.707400694249396e-02	8.801491074323292e-03
AuxNode	5.351583177553743e-02	3.364719501529101e-02	1.616948747255585e-02
AuxNode	5.354181668604191e-02	5.122060085145354e-02	3.297300706147676e-02
AuxNode	5.370967713560291e-02	1.919007411749355e-02	4.498590432692977e-02
AuxNode	5.373970064775719e-02	3.833958826028040e-02	2.342211553885247e-02
AuxNode	5.390944194601388e-02	1.644784934648225e-02	4.793083231577097e-02
AuxNode	5.394596881354727e-02	4.958163321464150e-02	3.833852334969545e-02
AuxNode	5.399593540489299e-02	1.686451755028693e-02	4.785933696011507e-02
AuxNode	5.401532383611592e-02	3.010878178058075e-02	4.569755648387104e-02
AuxNode	5.411513010391589e-02	2.929679500830039e-02	4.567140325765082e-02
AuxNode	5.426365203413312e-02	3.926292264958289e-02	2.179997910540691e-02
AuxNode	5.427068937545370e-02	4.086180321107331e-02	3.650221793337095e-02
AuxNode	5.428145153506806e-02	5.091849046236622e-02	3.701994296081866e-02
AuxNode	5.428909874390300e-02	4.087706890326804e-02	3.535239469413282e-02
AuxNode	5.439413192478091e-02	2.970819540236412e-02	4.506935258168143e-02
AuxNode	5.446795973671602e-02	3.563249585693082e-02	1.593176178643280e-02
AuxNode	5.459216993195121e-02	3.506656925733148e-02	1.558770786655952e-02
AuxNode	5.461646981596358e-02	3.727805570320902e-02	1.370384596807426e-02
AuxNode	5.483043231733617e-02	3.579374546926906e-02	1.350970697755447e-02
AuxNode	5.495440633012177e-02	2.960013392879303e-02	3.898201722499796e-02
AuxNode	5.501244574706533e-02	2.975075752202481e-02	3.919641655000865e-02
