# Type	nodeCrdX	nodeCrdY
AuxNode	2.999999990000	1.000000000000
AuxNode	3.000000000000	0.999999990000
AuxNode	0.000000000000	0.357935022168
AuxNode	3.000000000000	0.640836735515
AuxNode	3.000000000000	0.789163602368
AuxNode	3.000000000000	0.349721650428
AuxNode	2.484596127039	0.000000000000
AuxNode	2.166103373202	0.000000000000
AuxNode	2.322185916685	0.000000000000
AuxNode	1.164588715949	1.000000000000
AuxNode	2.097879614111	1.000000000000
AuxNode	2.495261356790	1.000000000000
AuxNode	2.745216358712	1.000000000000
AuxNode	2.237578161354	1.000000000000
AuxNode	0.000000000000	0.999999990000
AuxNode	0.000000000000	0.703264664072
AuxNode	0.000000000000	0.826309137552
AuxNode	0.000000000000	0.533970434213
AuxNode	0.196829953265	1.000000000000
AuxNode	0.386971965554	1.000000000000
AuxNode	0.000000010000	1.000000000000
AuxNode	0.846034194771	1.000000000000
AuxNode	1.011335466016	1.000000000000
AuxNode	0.641164992621	1.000000000000
AuxNode	0.428784820523	0.000000000000
AuxNode	0.300019460029	0.000000000000
AuxNode	0.000000000000	0.000000010000
AuxNode	0.000000010000	0.000000000000
AuxNode	0.148842950001	0.000000000000
AuxNode	0.000000000000	0.205524495800
AuxNode	3.000000000000	0.183624905383
AuxNode	1.718768460515	0.000000000000
AuxNode	1.988610826524	0.000000000000
AuxNode	1.434778015901	0.000000000000
AuxNode	1.581157921336	0.000000000000
AuxNode	1.764924880599	1.000000000000
AuxNode	1.602851736595	1.000000000000
AuxNode	1.439144399600	1.000000000000
AuxNode	0.591831551872	0.000000000000
AuxNode	1.909539231425	1.000000000000
AuxNode	2.882833312307	0.000000000000
AuxNode	3.000000000000	0.073997839853
AuxNode	2.630815285449	0.000000000000
AuxNode	0.993500584075	0.000000000000
AuxNode	1.243267260428	0.000000000000
AuxNode	0.758545648798	0.000000000000
