Dimension	3
Solver	solver.inp
RegionFiles 1 regions.inp
NodeFiles	4	nodes.inp	auxNodes.inp	vertices.inp	govNodes.inp
PBlockFiles	1	constraint.inp
MatFiles	1	materials.inp
ElemFiles	1	elems.inp
BCFiles	1	BC.inp
FunctionFiles	1	functions.inp
ExporterFiles	1	exporters.inp
