Cylinder center_bottom 0.000 0 0 center_top 0.15 0 0 radius 0.024
Box	min_point -1.000000e-05	-5.000000e-02	-5.000000e-02	max_point 2.000000e-05	5.000000e-02	5.000000e-02
Box	min_point 1.499800e-01	-5.000000e-02	-5.000000e-02	max_point 1.500200e-01	5.000000e-02	5.000000e-02
